<svg width="1824" height="981" xmlns="http://www.w3.org/2000/svg"
     xml:space="preserve" overflow="hidden"><g transform="translate(-1370 -980)"><g><rect x="1375.5" y="987.5" width="1816" height="968" stroke="#000000" stroke-width="4.58333" stroke-linecap="butt" stroke-linejoin="miter" stroke-miterlimit="8" stroke-opacity="1" fill="#FFFFFF" fill-opacity="1"/><text
    fill="#404040" fill-opacity="1" font-family="Arial,Arial_MSFontService,sans-serif" font-style="normal"
    font-variant="normal" font-weight="400" font-stretch="normal" font-size="50" text-anchor="start" direction="ltr"
    writing-mode="lr-tb" unicode-bidi="normal" text-decoration="none" transform="matrix(1 0 0 1 1494.41 1066)">&lt;&lt;server&gt;&gt;</text><text
    fill="#404040" fill-opacity="1" font-family="Arial,Arial_MSFontService,sans-serif" font-style="normal"
    font-variant="normal" font-weight="400" font-stretch="normal" font-size="64" text-anchor="start" direction="ltr"
    writing-mode="lr-tb" unicode-bidi="normal" text-decoration="none"
    transform="matrix(1 0 0 1 1425.36 1140)">Data</text><text fill="#404040" fill-opacity="1"
                                                              font-family="Arial,Arial_MSFontService,sans-serif"
                                                              font-style="normal" font-variant="normal"
                                                              font-weight="400" font-stretch="normal" font-size="64"
                                                              text-anchor="start" direction="ltr" writing-mode="lr-tb"
                                                              unicode-bidi="normal" text-decoration="none"
                                                              transform="matrix(1 0 0 1 1560.57 1140)">-</text><text
    fill="#404040" fill-opacity="1" font-family="Arial,Arial_MSFontService,sans-serif" font-style="normal"
    font-variant="normal" font-weight="400" font-stretch="normal" font-size="64" text-anchor="start" direction="ltr"
    writing-mode="lr-tb" unicode-bidi="normal" text-decoration="none"
    transform="matrix(1 0 0 1 1581.76 1140)">Provider</text><rect x="2024.5" y="1265.5" width="1050" height="540"
                                                                  stroke="#000000" stroke-width="4.58333"
                                                                  stroke-linecap="butt" stroke-linejoin="miter"
                                                                  stroke-miterlimit="8" stroke-opacity="1"
                                                                  fill="#FFFFFF" fill-opacity="1"/><text fill="#404040"
                                                                                                         fill-opacity="1"
                                                                                                         font-family="Arial,Arial_MSFontService,sans-serif"
                                                                                                         font-style="normal"
                                                                                                         font-variant="normal"
                                                                                                         font-weight="400"
                                                                                                         font-stretch="normal"
                                                                                                         font-size="50"
                                                                                                         text-anchor="start"
                                                                                                         direction="ltr"
                                                                                                         writing-mode="lr-tb"
                                                                                                         unicode-bidi="normal"
                                                                                                         text-decoration="none"
                                                                                                         transform="matrix(1 0 0 1 2413.26 1328)">&lt;&lt;library&gt;&gt;</text><text
    fill="#404040" fill-opacity="1" font-family="Arial,Arial_MSFontService,sans-serif" font-style="normal"
    font-variant="normal" font-weight="400" font-stretch="normal" font-size="64" text-anchor="start" direction="ltr"
    writing-mode="lr-tb" unicode-bidi="normal" text-decoration="none"
    transform="matrix(1 0 0 1 2054.91 1402)">Software</text><text fill="#404040" fill-opacity="1"
                                                                  font-family="Arial,Arial_MSFontService,sans-serif"
                                                                  font-style="normal" font-variant="normal"
                                                                  font-weight="400" font-stretch="normal" font-size="64"
                                                                  text-anchor="start" direction="ltr"
                                                                  writing-mode="lr-tb" unicode-bidi="normal"
                                                                  text-decoration="none"
                                                                  transform="matrix(1 0 0 1 2307.56 1402)">-</text><text
    fill="#404040" fill-opacity="1" font-family="Arial,Arial_MSFontService,sans-serif" font-style="normal"
    font-variant="normal" font-weight="400" font-stretch="normal" font-size="64" text-anchor="start" direction="ltr"
    writing-mode="lr-tb" unicode-bidi="normal" text-decoration="none"
    transform="matrix(1 0 0 1 2328.76 1402)">Product</text><text fill="#404040" fill-opacity="1"
                                                                 font-family="Arial,Arial_MSFontService,sans-serif"
                                                                 font-style="normal" font-variant="normal"
                                                                 font-weight="400" font-stretch="normal" font-size="64"
                                                                 text-anchor="start" direction="ltr"
                                                                 writing-mode="lr-tb" unicode-bidi="normal"
                                                                 text-decoration="none"
                                                                 transform="matrix(1 0 0 1 2549.33 1402)">-</text><text
    fill="#404040" fill-opacity="1" font-family="Arial,Arial_MSFontService,sans-serif" font-style="normal"
    font-variant="normal" font-weight="400" font-stretch="normal" font-size="64" text-anchor="start" direction="ltr"
    writing-mode="lr-tb" unicode-bidi="normal" text-decoration="none"
    transform="matrix(1 0 0 1 2570.53 1402)">Health</text><text fill="#404040" fill-opacity="1"
                                                                font-family="Arial,Arial_MSFontService,sans-serif"
                                                                font-style="normal" font-variant="normal"
                                                                font-weight="400" font-stretch="normal" font-size="64"
                                                                text-anchor="start" direction="ltr" writing-mode="lr-tb"
                                                                unicode-bidi="normal" text-decoration="none"
                                                                transform="matrix(1 0 0 1 2755.58 1402)">-</text><text
    fill="#404040" fill-opacity="1" font-family="Arial,Arial_MSFontService,sans-serif" font-style="normal"
    font-variant="normal" font-weight="400" font-stretch="normal" font-size="64" text-anchor="start" direction="ltr"
    writing-mode="lr-tb" unicode-bidi="normal" text-decoration="none"
    transform="matrix(1 0 0 1 2776.78 1402)">Analyzer</text><text fill="#404040" fill-opacity="1"
                                                                  font-family="Arial,Arial_MSFontService,sans-serif"
                                                                  font-style="normal" font-variant="normal"
                                                                  font-weight="400" font-stretch="normal" font-size="48"
                                                                  text-anchor="start" direction="ltr"
                                                                  writing-mode="lr-tb" unicode-bidi="normal"
                                                                  text-decoration="none"
                                                                  transform="matrix(1 0 0 1 2059.55 1509)">Calculate KPI Hierarchy</text><rect
    x="1992.5" y="1472.5" width="50.0002" height="38.9999" stroke="#000000" stroke-width="4.58333" stroke-linecap="butt"
    stroke-linejoin="miter" stroke-miterlimit="8" stroke-opacity="1" fill="#FFFFFF" fill-opacity="1"/><text
    fill="#404040" fill-opacity="1" font-family="Arial,Arial_MSFontService,sans-serif" font-style="normal"
    font-variant="normal" font-weight="400" font-stretch="normal" font-size="48" text-anchor="start" direction="ltr"
    writing-mode="lr-tb" unicode-bidi="normal" text-decoration="none" transform="matrix(1 0 0 1 2059.55 1617)">Validate KPI Hierarchy</text><rect
    x="1992.5" y="1582.5" width="50.0002" height="39.9999" stroke="#000000" stroke-width="4.58333" stroke-linecap="butt"
    stroke-linejoin="miter" stroke-miterlimit="8" stroke-opacity="1" fill="#FFFFFF" fill-opacity="1"/><text
    fill="#404040" fill-opacity="1" font-family="Arial,Arial_MSFontService,sans-serif" font-style="normal"
    font-variant="normal" font-weight="400" font-stretch="normal" font-size="48" text-anchor="start" direction="ltr"
    writing-mode="lr-tb" unicode-bidi="normal" text-decoration="none"
    transform="matrix(1 0 0 1 2059.55 1725)">Transform</text><text fill="#404040" fill-opacity="1"
                                                                   font-family="Arial,Arial_MSFontService,sans-serif"
                                                                   font-style="normal" font-variant="normal"
                                                                   font-weight="400" font-stretch="normal"
                                                                   font-size="48" text-anchor="start" direction="ltr"
                                                                   writing-mode="lr-tb" unicode-bidi="normal"
                                                                   text-decoration="none"
                                                                   transform="matrix(1 0 0 1 2292.15 1725)">t</text><text
    fill="#404040" fill-opacity="1" font-family="Arial,Arial_MSFontService,sans-serif" font-style="normal"
    font-variant="normal" font-weight="400" font-stretch="normal" font-size="48" text-anchor="start" direction="ltr"
    writing-mode="lr-tb" unicode-bidi="normal" text-decoration="none" transform="matrix(1 0 0 1 2305.33 1725)">ool results to KPIs</text><rect
    x="1992.5" y="1688.5" width="50.0002" height="38.9999" stroke="#000000" stroke-width="4.58333" stroke-linecap="butt"
    stroke-linejoin="miter" stroke-miterlimit="8" stroke-opacity="1" fill="#FFFFFF" fill-opacity="1"/></g></g></svg>
